<svg id="_24x24-cuoc-di-dong-tra-sau-ADSL" data-name="24x24-cuoc-di-dong-tra-sau-ADSL" xmlns="http://www.w3.org/2000/svg" width="24" height="24" viewBox="0 0 24 24">
  <rect id="boundingbox" width="24" height="24" fill="#fff" opacity="0"/>
  <path id="cuoc-di-dong-tra-sau-ADSL" d="M-3143,17314.5v-.4h-11.8v.4a.6.6,0,0,1-.6.6.6.6,0,0,1-.6-.6v-.4h-.4a2.6,2.6,0,0,1-2.6-2.6v-2a2.6,2.6,0,0,1,2.6-2.6h6.9v-7.9a.6.6,0,0,1,.6-.6.6.6,0,0,1,.6.6v7.9h6.9a2.6,2.6,0,0,1,2.6,2.6v2a2.6,2.6,0,0,1-2.6,2.6h-.4v.4a.6.6,0,0,1-.6.6A.6.6,0,0,1-3143,17314.5Zm-14.8-5v2a1.4,1.4,0,0,0,1.4,1.4h15a1.4,1.4,0,0,0,1.4-1.4v-2a1.4,1.4,0,0,0-1.4-1.4h-15A1.4,1.4,0,0,0-3157.8,17309.5Zm2.4,1.6a.6.6,0,0,1-.6-.6.6.6,0,0,1,.6-.6h7a.6.6,0,0,1,.6.6.6.6,0,0,1-.6.6Zm12.854-.086a.654.654,0,0,1-.191-.131.6.6,0,0,1-.182-.43.627.627,0,0,1,.052-.23.5.5,0,0,1,.13-.191.633.633,0,0,1,.847,0,.6.6,0,0,1,.122.191.519.519,0,0,1,.048.23.566.566,0,0,1-.178.43.6.6,0,0,1-.422.17A.707.707,0,0,1-3142.549,17311.012Zm-3,0a.533.533,0,0,1-.191-.131.607.607,0,0,1-.178-.43.636.636,0,0,1,.178-.422.639.639,0,0,1,.852,0,.626.626,0,0,1,.169.422.638.638,0,0,1-.169.43.646.646,0,0,1-.43.17A.752.752,0,0,1-3145.551,17311.012Zm5.549-7.51v-8a.6.6,0,0,1,.6-.6.6.6,0,0,1,.6.6v8a.6.6,0,0,1-.6.6A.6.6,0,0,1-3140,17303.5Zm-19,0v-8a.6.6,0,0,1,.6-.6.6.6,0,0,1,.6.6v8a.6.6,0,0,1-.6.6A.6.6,0,0,1-3159,17303.5Zm16-2v-4a.6.6,0,0,1,.6-.6.6.6,0,0,1,.6.6v4a.6.6,0,0,1-.6.6A.6.6,0,0,1-3143,17301.5Zm-13,0v-4a.6.6,0,0,1,.6-.6.6.6,0,0,1,.6.6v4a.6.6,0,0,1-.6.6A.6.6,0,0,1-3156,17301.5Zm10-1v-2a.6.6,0,0,1,.6-.6.6.6,0,0,1,.6.6v2a.6.6,0,0,1-.6.6A.6.6,0,0,1-3146,17300.5Zm-7,0v-2a.6.6,0,0,1,.6-.6.6.6,0,0,1,.6.6v2a.6.6,0,0,1-.6.6A.6.6,0,0,1-3153,17300.5Z" transform="translate(3160.9 -17293)" fill="#a1c038" stroke="rgba(0,0,0,0)" stroke-miterlimit="10" stroke-width="1"/>
</svg>
