<svg id="_24x24-kich-hoat-the" data-name="24x24-kich-hoat-the" xmlns="http://www.w3.org/2000/svg" width="24.499" height="24" viewBox="0 0 24.499 24">
  <rect id="boundingbox" width="24" height="24" fill="#fff" opacity="0"/>
  <path id="kich-hoat-the" d="M7822,14154.1a6.1,6.1,0,1,1,6.1,6.1A6.108,6.108,0,0,1,7822,14154.1Zm1.2,0a4.9,4.9,0,1,0,4.9-4.9A4.9,4.9,0,0,0,7823.2,14154.1Zm3.476,2.423-2-2a.6.6,0,0,1,.85-.85l1.574,1.578,3.575-3.579a.608.608,0,0,1,.85,0,.6.6,0,0,1,0,.85l-4,4a.6.6,0,0,1-.846,0Zm-12.076-3.326a2.6,2.6,0,0,1-2.6-2.6v-9a2.6,2.6,0,0,1,2.6-2.6h13a2.6,2.6,0,0,1,2.6,2.6v5.05a.6.6,0,1,1-1.2,0v-1.45h-15.8v5.4a1.4,1.4,0,0,0,1.4,1.4h6a.6.6,0,1,1,0,1.2Zm-1.4-9.2H7829v-.8h-15.8Zm0-2.4v.4H7829v-.4a1.4,1.4,0,0,0-1.4-1.4h-13A1.4,1.4,0,0,0,7813.2,14141.6Zm2.4,8.6a.6.6,0,1,1,0-1.2h3a.6.6,0,1,1,0,1.2Zm0-2a.6.6,0,1,1,0-1.2h5a.6.6,0,1,1,0,1.2Z" transform="translate(-7810.201 -14137.1)" fill="#a1c038" stroke="rgba(0,0,0,0)" stroke-miterlimit="10" stroke-width="1"/>
</svg>
