<svg id="_24x24-chuyen-tien-nhanh-247" data-name="24x24-chuyen-tien-nhanh-247" xmlns="http://www.w3.org/2000/svg" width="24.499" height="24" viewBox="0 0 24.499 24">
  <rect id="boundingbox" width="24" height="24" fill="#fff" opacity="0"/>
  <path id="chuyen-tien-nhanh-247" d="M7824.385,14158.924a10.091,10.091,0,1,1,7.815-9.822c0,.159-.011.319-.018.479a6.088,6.088,0,0,1-7.8,9.343Zm-1.183-4.822a4.9,4.9,0,1,0,4.9-4.9A4.9,4.9,0,0,0,7823.2,14154.1Zm-10-5a8.91,8.91,0,0,0,8.9,8.9,9.108,9.108,0,0,0,1.244-.093,6.1,6.1,0,0,1-.97-1.724c-.089,0-.181.015-.274.015a7.1,7.1,0,1,1,7.022-8.106,6.157,6.157,0,0,1,1.858.633,8.893,8.893,0,0,0-17.779.377Zm3,0a5.909,5.909,0,0,0,5.875,5.9,5.759,5.759,0,0,1-.075-.9,6.108,6.108,0,0,1,5.871-6.092,5.885,5.885,0,0,0-11.67,1.092Zm11.3,8.873v-.44a2.1,2.1,0,0,1-1.72-2.062.6.6,0,0,1,1.2,0,.9.9,0,0,0,.9.9h.437a.9.9,0,0,0,0-1.8h-.562a1.97,1.97,0,0,1-.256-3.924v-.427a.6.6,0,1,1,1.2,0v.441a2.1,2.1,0,0,1,1.72,2.061.6.6,0,0,1-1.2,0,.9.9,0,0,0-.9-.9h-.562a.776.776,0,0,0,0,1.553h.562a2.094,2.094,0,0,1,.38,4.154v.444a.6.6,0,1,1-1.2,0Zm-8.4-8.276a.6.6,0,1,1,0-1.2h2.4v-3.4a.6.6,0,0,1,1.2,0v4a.6.6,0,0,1-.6.6Z" transform="translate(-7810.201 -14137.1)" fill="#a1c038" stroke="rgba(0,0,0,0)" stroke-miterlimit="10" stroke-width="1"/>
</svg>
