<svg id="_24x24-dang-ky-vay-truc-tuyen-2" data-name="24x24-dang-ky-vay-truc-tuyen-2" xmlns="http://www.w3.org/2000/svg" width="24" height="24" viewBox="0 0 24 24">
  <rect id="boundingbox" width="24" height="24" fill="#fff" opacity="0"/>
  <path id="dang-ky-vay-truc-tuyen-2" d="M-2875,18007.6a.6.6,0,0,1,.592-.6c.253,0,2.4-.135,2.4-3.4,0-3.535-4.587-5.324-4.632-5.342a.587.587,0,0,1-.357-.381.606.606,0,0,1,.072-.514l1.46-2.166h-4.885l1.46,2.166a.593.593,0,0,1,.077.514.594.594,0,0,1-.362.381c-.045.018-4.633,1.807-4.633,5.342,0,3.363,2.3,3.4,2.4,3.4a.6.6,0,0,1,.6.6.6.6,0,0,1-.6.6c-.036,0-3.6-.055-3.6-4.6,0-3.463,3.263-5.445,4.723-6.16l-1.695-2.5a.608.608,0,0,1-.032-.619.6.6,0,0,1,.529-.316H-2878v-1.8h-12.8v9.4a.4.4,0,0,0,.4.4h3a.6.6,0,0,1,.6.6.6.6,0,0,1-.6.6h-3a1.6,1.6,0,0,1-1.6-1.6v-12a1.6,1.6,0,0,1,1.6-1.6h12a1.6,1.6,0,0,1,1.6,1.6v4.4h2.472a.614.614,0,0,1,.533.316.608.608,0,0,1-.036.619l-1.69,2.5c1.46.715,4.723,2.7,4.723,6.16,0,4.547-3.566,4.6-3.6,4.6A.6.6,0,0,1-2875,18007.6Zm-15.8-18v1.4h12.8v-1.4a.4.4,0,0,0-.4-.4h-12A.4.4,0,0,0-2890.8,17989.6Zm12.32,18v-.439a2.1,2.1,0,0,1-1.718-2.061.6.6,0,0,1,.6-.6.6.6,0,0,1,.6.6.9.9,0,0,0,.9.9h.434a.9.9,0,0,0,.9-.9.9.9,0,0,0-.9-.9h-.56a1.978,1.978,0,0,1-1.975-1.977,1.968,1.968,0,0,1,1.718-1.947v-.43a.6.6,0,0,1,.6-.6.6.6,0,0,1,.6.6v.443a2.092,2.092,0,0,1,1.717,2.057.6.6,0,0,1-.6.6.6.6,0,0,1-.6-.6.907.907,0,0,0-.9-.9h-.56a.778.778,0,0,0-.777.777.776.776,0,0,0,.777.773h.56a2.1,2.1,0,0,1,2.1,2.1,2.1,2.1,0,0,1-1.717,2.057v.443a.6.6,0,0,1-.6.6A.6.6,0,0,1-2878.482,18007.6Zm-9.92-8.4a.6.6,0,0,1-.6-.6.6.6,0,0,1,.6-.6h2a.6.6,0,0,1,.6.6.6.6,0,0,1-.6.6Zm0-2a.6.6,0,0,1-.6-.6.6.6,0,0,1,.6-.6h4a.6.6,0,0,1,.6.6.6.6,0,0,1-.6.6Zm0-2a.6.6,0,0,1-.6-.6.6.6,0,0,1,.6-.6h4a.6.6,0,0,1,.6.6.6.6,0,0,1-.6.6Z" transform="translate(2893.901 -17986.102)" fill="#a1c038" stroke="rgba(0,0,0,0)" stroke-miterlimit="10" stroke-width="1"/>
</svg>
