<svg width="20" height="20" viewBox="0 0 20 20" fill="none" xmlns="http://www.w3.org/2000/svg">
<path d="M15.8333 10.0001H4.16663M4.16663 10.0001L9.99996 15.8334M4.16663 10.0001L9.99996 4.16675" stroke="#363E46" stroke-width="1.67" stroke-linecap="round" stroke-linejoin="round"/>
</svg>
