<svg width="20" height="20" viewBox="0 0 20 20" fill="none" xmlns="http://www.w3.org/2000/svg">
<path d="M3.75 16.875C3.75 16.3777 3.94754 15.9008 4.29917 15.5492C4.65081 15.1975 5.12772 15 5.625 15H16.25V2.5H5.625C5.12772 2.5 4.65081 2.69754 4.29917 3.04917C3.94754 3.40081 3.75 3.87772 3.75 4.375V16.875Z" stroke="#363E46" stroke-linecap="round" stroke-linejoin="round"/>
<path d="M3.75 16.875V17.5H15" stroke="#363E46" stroke-linecap="round" stroke-linejoin="round"/>
</svg>
