<svg width="25" height="24" viewBox="0 0 25 24" fill="none" xmlns="http://www.w3.org/2000/svg">
<path d="M9 6H20.25" stroke="#015AAB" stroke-width="1.5" stroke-linecap="round" stroke-linejoin="round"/>
<path d="M20.5 1L23.5 4" stroke="#015AAB" stroke-width="1.5" stroke-linecap="round" stroke-linejoin="round"/>
<path d="M9.00061 12H20.25" stroke="#015AAB" stroke-width="1.5" stroke-linecap="round" stroke-linejoin="round"/>
<path d="M9.00061 18H20.25" stroke="#015AAB" stroke-width="1.5" stroke-linecap="round" stroke-linejoin="round"/>
<path d="M3.75 6H5.25" stroke="#015AAB" stroke-width="1.5" stroke-linecap="round" stroke-linejoin="round"/>
<path d="M3.75061 12H5.25003" stroke="#015AAB" stroke-width="1.5" stroke-linecap="round" stroke-linejoin="round"/>
<path d="M3.75061 18H5.25003" stroke="#015AAB" stroke-width="1.5" stroke-linecap="round" stroke-linejoin="round"/>
<path d="M20.5 4L23.5 1" stroke="#015AAB" stroke-width="1.5" stroke-linecap="round" stroke-linejoin="round"/>
</svg>
