<svg width="48" height="49" viewBox="0 0 48 49" fill="none" xmlns="http://www.w3.org/2000/svg">
<rect y="0.5" width="48" height="48" rx="24" fill="#FDA601"/>
<path d="M19.4844 21.8484H14.9844V17.3484" stroke="#FAFAFA" stroke-width="1.5" stroke-linecap="round" stroke-linejoin="round"/>
<path d="M29.8336 18.6664C29.0675 17.9003 28.1581 17.2926 27.1571 16.878C26.1562 16.4634 25.0834 16.25 24 16.25C22.9166 16.25 21.8438 16.4634 20.8428 16.878C19.8419 17.2926 18.9324 17.9003 18.1664 18.6664L14.9844 21.8484" stroke="#FAFAFA" stroke-width="1.5" stroke-linecap="round" stroke-linejoin="round"/>
<path d="M28.5156 27.1516H33.0156V31.6516" stroke="#FAFAFA" stroke-width="1.5" stroke-linecap="round" stroke-linejoin="round"/>
<path d="M18.1663 30.3336C18.9323 31.0997 19.8418 31.7074 20.8428 32.122C21.8437 32.5366 22.9165 32.75 23.9999 32.75C25.0833 32.75 26.1561 32.5366 27.157 32.122C28.158 31.7074 29.0674 31.0997 29.8335 30.3336L33.0155 27.1516" stroke="#FAFAFA" stroke-width="2" stroke-linecap="round" stroke-linejoin="round"/>
</svg>
