<svg width="21" height="20" viewBox="0 0 21 20" fill="none" xmlns="http://www.w3.org/2000/svg">
<path d="M8 16.8749H4.25C4.08424 16.8749 3.92527 16.8091 3.80806 16.6919C3.69085 16.5747 3.625 16.4157 3.625 16.2499V12.7577C3.62472 12.6766 3.64044 12.5962 3.67128 12.5211C3.70211 12.446 3.74745 12.3778 3.80469 12.3202L13.1797 2.94524C13.2378 2.88619 13.3072 2.83929 13.3836 2.80728C13.4601 2.77527 13.5421 2.75879 13.625 2.75879C13.7079 2.75879 13.7899 2.77527 13.8664 2.80728C13.9428 2.83929 14.0122 2.88619 14.0703 2.94524L17.5547 6.42962C17.6137 6.48777 17.6606 6.5571 17.6927 6.63355C17.7247 6.71 17.7411 6.79205 17.7411 6.87493C17.7411 6.95781 17.7247 7.03987 17.6927 7.11632C17.6606 7.19277 17.6137 7.26209 17.5547 7.32024L8 16.8749Z" stroke="#727374" stroke-width="1.5" stroke-linecap="round" stroke-linejoin="round"/>
<path d="M17.375 16.875H8" stroke="#727374" stroke-width="1.5" stroke-linecap="round" stroke-linejoin="round"/>
<path d="M11.125 5L15.5 9.375" stroke="#727374" stroke-width="1.5" stroke-linecap="round" stroke-linejoin="round"/>
</svg>
